{
    "KPlugin": {
        "Authors": [
            {
                "Email": "mart@kde.org",
                "Name": "Marco Martin",
                "Name[ar]": "Marco Martin",
                "Name[az]": "Marco Martin",
                "Name[ca@valencia]": "Marco Martin",
                "Name[ca]": "Marco Martin",
                "Name[cs]": "Marco Martin",
                "Name[de]": "Marco Martin",
                "Name[en_GB]": "Marco Martin",
                "Name[es]": "Marco Martin",
                "Name[eu]": "Marco Martin",
                "Name[fi]": "Marco Martin",
                "Name[fr]": "Marco Martin",
                "Name[hu]": "Marco Martin",
                "Name[ia]": "Marco Martin",
                "Name[id]": "Marco Martin",
                "Name[it]": "Marco Martin",
                "Name[ko]": "Marco Martin",
                "Name[lt]": "Marco Martin",
                "Name[nl]": "Marco Martin",
                "Name[nn]": "Marco Martin",
                "Name[pl]": "Marco Martin",
                "Name[pt]": "Marco Martin",
                "Name[pt_BR]": "Marco Martin",
                "Name[ro]": "Marco Martin",
                "Name[ru]": "Marco Martin",
                "Name[sk]": "Marco Martin",
                "Name[sl]": "Marco Martin",
                "Name[sv]": "Marco Martin",
                "Name[ta]": "மார்க்கோ மார்ட்டின்",
                "Name[tr]": "Marco Martin",
                "Name[uk]": "Marco Martin",
                "Name[vi]": "Marco Martin",
                "Name[x-test]": "xxMarco Martinxx",
                "Name[zh_CN]": "Marco Martin"
            }
        ],
        "Category": "",
        "Id": "org.kde.panel",
        "License": "GPL-2.0+",
        "Name": "Panel",
        "Name[ar]": "لوحة",
        "Name[ast]": "Panel",
        "Name[az]": "Panel",
        "Name[be]": "Панель",
        "Name[bn]": "প্যানেল",
        "Name[br]": "Panell",
        "Name[bs]": "Panel",
        "Name[ca@valencia]": "Quadre",
        "Name[ca]": "Plafó",
        "Name[cs]": "Panel",
        "Name[cy]": "Panel",
        "Name[da]": "Panel",
        "Name[de]": "Kontrollleiste",
        "Name[el]": "Πίνακας",
        "Name[en_GB]": "Panel",
        "Name[eo]": "Panelo",
        "Name[es]": "Panel",
        "Name[et]": "Paneel",
        "Name[eu]": "Panela",
        "Name[fa]": "تابلو",
        "Name[fi]": "Paneeli",
        "Name[fr]": "Tableau de bord",
        "Name[ga]": "Painéal",
        "Name[gl]": "Panel",
        "Name[he]": "לוח",
        "Name[hr]": "Panel",
        "Name[hu]": "Panel",
        "Name[ia]": "Pannello",
        "Name[id]": "Panel",
        "Name[is]": "Spjald",
        "Name[it]": "Pannello",
        "Name[ja]": "パネル",
        "Name[ka]": "პანელი",
        "Name[kk]": "Панель",
        "Name[kn]": "ಪುಟೀಪು (ಪಾನಲ್)",
        "Name[ko]": "패널",
        "Name[lt]": "Skydelis",
        "Name[mr]": "पटल",
        "Name[nb]": "Panel",
        "Name[nds]": "Paneel",
        "Name[nl]": "Paneel",
        "Name[nn]": "Panel",
        "Name[pa]": "ਪੈਨਲ",
        "Name[pl]": "Panel",
        "Name[pt]": "Painel",
        "Name[pt_BR]": "Painel",
        "Name[ro]": "Panou",
        "Name[ru]": "Панель",
        "Name[sk]": "Panel",
        "Name[sl]": "Pult",
        "Name[sr@ijekavian]": "Панел",
        "Name[sr@ijekavianlatin]": "Panel",
        "Name[sr@latin]": "Panel",
        "Name[sr]": "Панел",
        "Name[sv]": "Panel",
        "Name[ta]": "பலகை",
        "Name[tg]": "Лавҳа",
        "Name[tr]": "Panel",
        "Name[uk]": "Панель",
        "Name[uz@cyrillic]": "Панел",
        "Name[uz]": "Panel",
        "Name[vi]": "Bảng",
        "Name[x-test]": "xxPanelxx",
        "Name[xh]": "Iqela lenjongo ethile",
        "Name[zh_CN]": "面板",
        "Name[zh_TW]": "面板",
        "ServiceTypes": [
            "Plasma/Applet",
            "Plasma/Containment"
        ],
        "Version": "3.0",
        "Website": "https://www.kde.org/plasma-desktop"
    },
    "Keywords": "",
    "NoDisplay": true,
    "X-Plasma-API": "declarativeappletscript",
    "X-Plasma-ContainmentType": "Panel",
    "X-Plasma-MainScript": "ui/main.qml"
}
